$ systemctl status dvd-stop-open.service
● dvd-stop-open.service - Disable DVD auto-open
   Loaded: loaded (/etc/systemd/system/dvd-stop-open.service; enabled; vendor preset: enabled)
   Active: active (exited) since Sun 2019-02-17 17:43:46 IST; 12s ago
     Docs: man:setcd(1)
  Process: 4350 ExecStart=/usr/bin/setcd -o0 /dev/sr0 (code=exited, status=0/SUCCESS)
 Main PID: 4350 (code=exited, status=0/SUCCESS)

Feb 17 17:43:46 Lune systemd[1]: Starting Disable DVD auto-open...
Feb 17 17:43:46 Lune setcd[4350]: /dev/sr0:
Feb 17 17:43:46 Lune setcd[4350]:   Auto open tray:      cleared
Feb 17 17:43:46 Lune systemd[1]: Started Disable DVD auto-open.


$ sudo setcd -s /dev/sr0
/dev/sr0:
  Auto close tray:     cleared
  Auto open tray:      cleared
  Use O_NONBLOCK flag: set
  Lock tray:           cleared
  Check CD type:       cleared


Reading package lists... Done
Building dependency tree       
Reading state information... Done
The following additional packages will be installed:
  cpp cpp-7 g++-7 gcc gcc-7 gcc-7-base gcc-8-base libasan4 libatomic1 libc-dev-bin libc6-dev libcc1-0 libcilkrts5 libgcc-7-dev libgcc1
  libgomp1 libitm1 liblsan0 libmpx2 libquadmath0 libstdc++-7-dev libstdc++6 libtsan0 libubsan0 linux-libc-dev manpages-dev
Suggested packages:
  cpp-doc gcc-7-locales g++-multilib g++-7-multilib gcc-7-doc libstdc++6-7-dbg gcc-multilib make autoconf automake libtool flex bison
  gcc-doc gcc-7-multilib libgcc1-dbg libgomp1-dbg libitm1-dbg libatomic1-dbg libasan4-dbg liblsan0-dbg libtsan0-dbg libubsan0-dbg
  libcilkrts5-dbg libmpx2-dbg libquadmath0-dbg glibc-doc libstdc++-7-doc
The following NEW packages will be installed:
  g++ g++-7 gcc gcc-7 libasan4 libatomic1 libc-dev-bin libc6-dev libcilkrts5 libgcc-7-dev libitm1 liblsan0 libmpx2 libquadmath0
  libstdc++-7-dev libtsan0 libubsan0 linux-libc-dev manpages-dev
The following packages will be upgraded:
  cpp cpp-7 gcc-7-base gcc-8-base libcc1-0 libgcc1 libgomp1 libstdc++6
8 upgraded, 19 newly installed, 0 to remove and 399 not upgraded.
Need to get 32.7 MB/33.2 MB of archives.
After this operation, 114 MB of additional disk space will be used.
Do you want to continue? [Y/n] y
Get:1 http://in.archive.ubuntu.com/ubuntu bionic-updates/main amd64 cpp-7 amd64 7.3.0-27ubuntu1~18.04 [6,738 kB]
Get:2 http://in.archive.ubuntu.com/ubuntu bionic-updates/main amd64 gcc-7-base amd64 7.3.0-27ubuntu1~18.04 [18.9 kB]
Get:3 http://in.archive.ubuntu.com/ubuntu bionic-updates/main amd64 cpp amd64 4:7.3.0-3ubuntu2.1 [27.6 kB]
Get:4 http://in.archive.ubuntu.com/ubuntu bionic-updates/main amd64 libitm1 amd64 8.2.0-1ubuntu2~18.04 [28.1 kB]
Get:5 http://in.archive.ubuntu.com/ubuntu bionic-updates/main amd64 libatomic1 amd64 8.2.0-1ubuntu2~18.04 [9,064 B]
Get:6 http://in.archive.ubuntu.com/ubuntu bionic-updates/main amd64 libasan4 amd64 7.3.0-27ubuntu1~18.04 [358 kB]
Get:7 http://in.archive.ubuntu.com/ubuntu bionic-updates/main amd64 liblsan0 amd64 8.2.0-1ubuntu2~18.04 [132 kB]
Get:8 http://in.archive.ubuntu.com/ubuntu bionic-updates/main amd64 libtsan0 amd64 8.2.0-1ubuntu2~18.04 [288 kB]
Get:9 http://in.archive.ubuntu.com/ubuntu bionic-updates/main amd64 libubsan0 amd64 7.3.0-27ubuntu1~18.04 [126 kB]
Get:10 http://in.archive.ubuntu.com/ubuntu bionic-updates/main amd64 libcilkrts5 amd64 7.3.0-27ubuntu1~18.04 [42.5 kB]
Get:11 http://in.archive.ubuntu.com/ubuntu bionic-updates/main amd64 libmpx2 amd64 8.2.0-1ubuntu2~18.04 [11.7 kB]
Get:12 http://in.archive.ubuntu.com/ubuntu bionic-updates/main amd64 libquadmath0 amd64 8.2.0-1ubuntu2~18.04 [133 kB]
Get:13 http://in.archive.ubuntu.com/ubuntu bionic-updates/main amd64 libgcc-7-dev amd64 7.3.0-27ubuntu1~18.04 [2,380 kB]
Get:14 http://in.archive.ubuntu.com/ubuntu bionic-updates/main amd64 gcc-7 amd64 7.3.0-27ubuntu1~18.04 [7,455 kB]                            
Get:15 http://in.archive.ubuntu.com/ubuntu bionic-updates/main amd64 gcc amd64 4:7.3.0-3ubuntu2.1 [5,184 B]                                  
Get:16 http://in.archive.ubuntu.com/ubuntu bionic/main amd64 libc-dev-bin amd64 2.27-3ubuntu1 [71.8 kB]                                      
Get:17 http://in.archive.ubuntu.com/ubuntu bionic-updates/main amd64 linux-libc-dev amd64 4.15.0-45.48 [1,001 kB]                            
Get:18 http://in.archive.ubuntu.com/ubuntu bionic/main amd64 libc6-dev amd64 2.27-3ubuntu1 [2,587 kB]                                        
Get:19 http://in.archive.ubuntu.com/ubuntu bionic-updates/main amd64 libstdc++-7-dev amd64 7.3.0-27ubuntu1~18.04 [1,463 kB]                  
Get:20 http://in.archive.ubuntu.com/ubuntu bionic-updates/main amd64 g++-7 amd64 7.3.0-27ubuntu1~18.04 [7,570 kB]                            
Get:21 http://in.archive.ubuntu.com/ubuntu bionic-updates/main amd64 g++ amd64 4:7.3.0-3ubuntu2.1 [1,572 B]                                  
Get:22 http://in.archive.ubuntu.com/ubuntu bionic/main amd64 manpages-dev all 4.15-1 [2,217 kB]                                              
Fetched 32.7 MB in 15s (2,166 kB/s)                                                                                                          
(Reading database ... 127625 files and directories currently installed.)
Preparing to unpack .../gcc-8-base_8.2.0-1ubuntu2~18.04_amd64.deb ...
Unpacking gcc-8-base:amd64 (8.2.0-1ubuntu2~18.04) over (8-20180414-1ubuntu2) ...
Setting up gcc-8-base:amd64 (8.2.0-1ubuntu2~18.04) ...
(Reading database ... 127624 files and directories currently installed.)
Preparing to unpack .../libstdc++6_8.2.0-1ubuntu2~18.04_amd64.deb ...
Unpacking libstdc++6:amd64 (8.2.0-1ubuntu2~18.04) over (8-20180414-1ubuntu2) ...
Setting up libstdc++6:amd64 (8.2.0-1ubuntu2~18.04) ...
(Reading database ... 127624 files and directories currently installed.)
Preparing to unpack .../libgomp1_8.2.0-1ubuntu2~18.04_amd64.deb ...
Unpacking libgomp1:amd64 (8.2.0-1ubuntu2~18.04) over (8-20180414-1ubuntu2) ...
Preparing to unpack .../libcc1-0_8.2.0-1ubuntu2~18.04_amd64.deb ...
Unpacking libcc1-0:amd64 (8.2.0-1ubuntu2~18.04) over (8-20180414-1ubuntu2) ...
Preparing to unpack .../libgcc1_1%3a8.2.0-1ubuntu2~18.04_amd64.deb ...
Unpacking libgcc1:amd64 (1:8.2.0-1ubuntu2~18.04) over (1:8-20180414-1ubuntu2) ...
Setting up libgcc1:amd64 (1:8.2.0-1ubuntu2~18.04) ...
(Reading database ... 127624 files and directories currently installed.)
Preparing to unpack .../00-cpp-7_7.3.0-27ubuntu1~18.04_amd64.deb ...
Unpacking cpp-7 (7.3.0-27ubuntu1~18.04) over (7.3.0-16ubuntu3) ...
Preparing to unpack .../01-gcc-7-base_7.3.0-27ubuntu1~18.04_amd64.deb ...
Unpacking gcc-7-base:amd64 (7.3.0-27ubuntu1~18.04) over (7.3.0-16ubuntu3) ...
Preparing to unpack .../02-cpp_4%3a7.3.0-3ubuntu2.1_amd64.deb ...
Unpacking cpp (4:7.3.0-3ubuntu2.1) over (4:7.3.0-3ubuntu2) ...
Selecting previously unselected package libitm1:amd64.
Preparing to unpack .../03-libitm1_8.2.0-1ubuntu2~18.04_amd64.deb ...
Unpacking libitm1:amd64 (8.2.0-1ubuntu2~18.04) ...
Selecting previously unselected package libatomic1:amd64.
Preparing to unpack .../04-libatomic1_8.2.0-1ubuntu2~18.04_amd64.deb ...
Unpacking libatomic1:amd64 (8.2.0-1ubuntu2~18.04) ...
Selecting previously unselected package libasan4:amd64.
Preparing to unpack .../05-libasan4_7.3.0-27ubuntu1~18.04_amd64.deb ...
Unpacking libasan4:amd64 (7.3.0-27ubuntu1~18.04) ...
Selecting previously unselected package liblsan0:amd64.
Preparing to unpack .../06-liblsan0_8.2.0-1ubuntu2~18.04_amd64.deb ...
Unpacking liblsan0:amd64 (8.2.0-1ubuntu2~18.04) ...
Selecting previously unselected package libtsan0:amd64.
Preparing to unpack .../07-libtsan0_8.2.0-1ubuntu2~18.04_amd64.deb ...
Unpacking libtsan0:amd64 (8.2.0-1ubuntu2~18.04) ...
Selecting previously unselected package libubsan0:amd64.
Preparing to unpack .../08-libubsan0_7.3.0-27ubuntu1~18.04_amd64.deb ...
Unpacking libubsan0:amd64 (7.3.0-27ubuntu1~18.04) ...
Selecting previously unselected package libcilkrts5:amd64.
Preparing to unpack .../09-libcilkrts5_7.3.0-27ubuntu1~18.04_amd64.deb ...
Unpacking libcilkrts5:amd64 (7.3.0-27ubuntu1~18.04) ...
Selecting previously unselected package libmpx2:amd64.
Preparing to unpack .../10-libmpx2_8.2.0-1ubuntu2~18.04_amd64.deb ...
Unpacking libmpx2:amd64 (8.2.0-1ubuntu2~18.04) ...
Selecting previously unselected package libquadmath0:amd64.
Preparing to unpack .../11-libquadmath0_8.2.0-1ubuntu2~18.04_amd64.deb ...
Unpacking libquadmath0:amd64 (8.2.0-1ubuntu2~18.04) ...
Selecting previously unselected package libgcc-7-dev:amd64.
Preparing to unpack .../12-libgcc-7-dev_7.3.0-27ubuntu1~18.04_amd64.deb ...
Unpacking libgcc-7-dev:amd64 (7.3.0-27ubuntu1~18.04) ...
Selecting previously unselected package gcc-7.
Preparing to unpack .../13-gcc-7_7.3.0-27ubuntu1~18.04_amd64.deb ...
Unpacking gcc-7 (7.3.0-27ubuntu1~18.04) ...
Selecting previously unselected package gcc.
Preparing to unpack .../14-gcc_4%3a7.3.0-3ubuntu2.1_amd64.deb ...
Unpacking gcc (4:7.3.0-3ubuntu2.1) ...
Selecting previously unselected package libc-dev-bin.
Preparing to unpack .../15-libc-dev-bin_2.27-3ubuntu1_amd64.deb ...
Unpacking libc-dev-bin (2.27-3ubuntu1) ...
Selecting previously unselected package linux-libc-dev:amd64.
Preparing to unpack .../16-linux-libc-dev_4.15.0-45.48_amd64.deb ...
Unpacking linux-libc-dev:amd64 (4.15.0-45.48) ...
Selecting previously unselected package libc6-dev:amd64.
Preparing to unpack .../17-libc6-dev_2.27-3ubuntu1_amd64.deb ...
Unpacking libc6-dev:amd64 (2.27-3ubuntu1) ...
Selecting previously unselected package libstdc++-7-dev:amd64.
Preparing to unpack .../18-libstdc++-7-dev_7.3.0-27ubuntu1~18.04_amd64.deb ...
Unpacking libstdc++-7-dev:amd64 (7.3.0-27ubuntu1~18.04) ...
Selecting previously unselected package g++-7.
Preparing to unpack .../19-g++-7_7.3.0-27ubuntu1~18.04_amd64.deb ...
Unpacking g++-7 (7.3.0-27ubuntu1~18.04) ...
Selecting previously unselected package g++.
Preparing to unpack .../20-g++_4%3a7.3.0-3ubuntu2.1_amd64.deb ...
Unpacking g++ (4:7.3.0-3ubuntu2.1) ...
Selecting previously unselected package manpages-dev.
Preparing to unpack .../21-manpages-dev_4.15-1_all.deb ...
Unpacking manpages-dev (4.15-1) ...
Setting up libquadmath0:amd64 (8.2.0-1ubuntu2~18.04) ...
Setting up libgomp1:amd64 (8.2.0-1ubuntu2~18.04) ...
Setting up libatomic1:amd64 (8.2.0-1ubuntu2~18.04) ...
Setting up libcc1-0:amd64 (8.2.0-1ubuntu2~18.04) ...
Setting up libtsan0:amd64 (8.2.0-1ubuntu2~18.04) ...
Setting up linux-libc-dev:amd64 (4.15.0-45.48) ...
Setting up liblsan0:amd64 (8.2.0-1ubuntu2~18.04) ...
Setting up gcc-7-base:amd64 (7.3.0-27ubuntu1~18.04) ...
Setting up libmpx2:amd64 (8.2.0-1ubuntu2~18.04) ...
Processing triggers for libc-bin (2.27-3ubuntu1) ...
Processing triggers for man-db (2.8.3-2) ...
Setting up libc-dev-bin (2.27-3ubuntu1) ...
Setting up manpages-dev (4.15-1) ...
Setting up libc6-dev:amd64 (2.27-3ubuntu1) ...
Setting up libitm1:amd64 (8.2.0-1ubuntu2~18.04) ...
Setting up libasan4:amd64 (7.3.0-27ubuntu1~18.04) ...
Setting up libcilkrts5:amd64 (7.3.0-27ubuntu1~18.04) ...
Setting up libubsan0:amd64 (7.3.0-27ubuntu1~18.04) ...
Setting up libgcc-7-dev:amd64 (7.3.0-27ubuntu1~18.04) ...
Setting up cpp-7 (7.3.0-27ubuntu1~18.04) ...
Setting up libstdc++-7-dev:amd64 (7.3.0-27ubuntu1~18.04) ...
Setting up cpp (4:7.3.0-3ubuntu2.1) ...
Setting up gcc-7 (7.3.0-27ubuntu1~18.04) ...
Setting up g++-7 (7.3.0-27ubuntu1~18.04) ...
Setting up gcc (4:7.3.0-3ubuntu2.1) ...
Setting up g++ (4:7.3.0-3ubuntu2.1) ...
update-alternatives: using /usr/bin/g++ to provide /usr/bin/c++ (c++) in auto mode
Processing triggers for libc-bin (2.27-3ubuntu1) ...


Archive:  cpp-demo-project.zip
   creating: cpp-demo-project/
   creating: cpp-demo-project/notes/
  inflating: cpp-demo-project/notes/.Commands_v1.txt.swp  
  inflating: cpp-demo-project/notes/linux-commands-v1.txt 


$vim filename
E325: ATTENTION
Found a swap file by the name "mutex/.MyMutex.cpp.swp"
          owned by: horiba   dated: Wed Feb 20 18:54:28 2019
         file name: ~horiba/cpp-demo-project/src/mutex/MyMutex.cpp
          modified: YES
         user name: horiba   host name: lis-ssm-ubuntu
        process ID: 6867 (still running)
While opening file "mutex/MyMutex.cpp"
             dated: Wed Feb 20 18:53:48 2019

(1) Another program may be editing the same file.  If this is the case,
    be careful not to end up with two different instances of the same
    file when making changes.  Quit, or continue with caution.
(2) An edit session for this file crashed.
    If this is the case, use ":recover" or "vim -r mutex/MyMutex.cpp"
    to recover the changes (see ":help recovery").
    If you did this already, delete the swap file "mutex/.MyMutex.cpp.swp"
    to avoid this message.

Swap file "mutex/.MyMutex.cpp.swp" already exists!
[O]pen Read-Only, (E)dit anyway, (R)ecover, (Q)uit, (A)bort: 

$vim -r filename
Using swap file "mutex/.MyMutex.cpp.swp"
Original file "~/cpp-demo-project/src/mutex/MyMutex.cpp"
Recovery completed. You should check if everything is OK.
(You might want to write out this file under another name
and run diff with the original file to check for changes)
You may want to delete the .swp file now.

$date -s '2018-02-01 21:39'
date: cannot set date: Operation not permitted


